DS202A - W04 Summative
…
The dataset is sorted in ascending order first just in case to prevent spillovers in the lag. Then it is sorted by date in descending order (for readability).

I retroactively added the variable FlatPrice to the df_uk dataset and lagged it, in order to build a second model.

In order to be able to make predictions, I have lagged variables, but it is important to note that this makes the assumption that future data relies on the relationship between current and previous data. It assumes that the predictor helps for forecasting future data, but if the future data doesn’t follow that same relationship, the predictions risk being inaccurate.

Creating the training and testing data sets

df_uk_train<-
  df_uk%>%
  filter(mdy(Date) < mdy("01/12/2019"))

df_uk_train

# A tibble: 176 × 6
   RegionName     SalesVolume Date       FlatPrice SalesVolumelag1 FlatPricelag1
   <chr>                <dbl> <chr>          <dbl>           <dbl>         <dbl>
 1 United Kingdom      83837  01/12/2018   205194.          91613.       203174.
 2 United Kingdom      91613. 01/12/2017   203174.          94685        195784.
 3 United Kingdom      94685  01/12/2016   195784.          94397.       184535.
 4 United Kingdom      94397. 01/12/2015   184535.          88917        174054.
 5 United Kingdom      88917  01/12/2014   174054.          90540        158479.
 6 United Kingdom      90540  01/12/2013   158479.          63795        146086.
 7 United Kingdom      63795  01/12/2012   146086.          70770        144095.
 8 United Kingdom      70770  01/12/2011   144095.          63541.       143845.
 9 United Kingdom      63541. 01/12/2010   143845.          87202        144066.
10 United Kingdom      87202  01/12/2009   144066.          46373.       140291.
# ℹ 166 more rows

df_uk_test<-
  df_uk%>%
  filter(mdy(Date) >= mdy("01/01/2020"))

df_uk_test

# A tibble: 42 × 6
   RegionName     SalesVolume Date       FlatPrice SalesVolumelag1 FlatPricelag1
   <chr>                <dbl> <chr>          <dbl>           <dbl>         <dbl>
 1 United Kingdom      70248  01/12/2022   230935           81100.       219288.
 2 United Kingdom      81100. 01/12/2021   219288.         104608.       211424.
 3 United Kingdom     104608. 01/12/2020   211424.          84958.       203611.
 4 United Kingdom      80197  01/11/2022   233054           76313.       220260.
 5 United Kingdom      76313. 01/11/2021   220260.          96254.       211188.
 6 United Kingdom      96254. 01/11/2020   211188.          93439.       202398.
 7 United Kingdom      79740  01/10/2022   231949           64254.       216574.
 8 United Kingdom      64254. 01/10/2021   216574.          97907.       208547.
 9 United Kingdom      97907. 01/10/2020   208547.          90625.       204632.
10 United Kingdom      83404  01/09/2022   233037          129270.       222368.
# ℹ 32 more rows
…
Residual standard error: 19350 on 165 degrees of freedom
  (9 observations deleted due to missingness)
Multiple R-squared:  0.3599,    Adjusted R-squared:  0.356 
F-statistic: 92.75 on 1 and 165 DF,  p-value: < 2.2e-16

Summarising the model’s fit shows its statistical significance, which is evidence that the lagged sales volume has an impact on sales volume.

lin_model %>% augment(df_uk_train)

# A tibble: 176 × 8
    .pred  .resid RegionName     SalesVolume Date      FlatPrice SalesVolumelag1
    <dbl>   <dbl> <chr>                <dbl> <chr>         <dbl>           <dbl>
 1 86686.  -2849. United Kingdom      83837  01/12/20…   205194.          91613.
 2 88462.   3152. United Kingdom      91613. 01/12/20…   203174.          94685 
 3 88295.   6390. United Kingdom      94685  01/12/20…   195784.          94397.
 4 85127.   9269. United Kingdom      94397. 01/12/20…   184535.          88917 
 5 86066.   2851. United Kingdom      88917  01/12/20…   174054.          90540 
 6 70605.  19935. United Kingdom      90540  01/12/20…   158479.          63795 
 7 74637. -10842. United Kingdom      63795  01/12/20…   146086.          70770 
 8 70458.    312. United Kingdom      70770  01/12/20…   144095.          63541.
 9 84136. -20595. United Kingdom      63541. 01/12/20…   143845.          87202 
10 60533.  26669. United Kingdom      87202  01/12/20…   144066.          46373.
# ℹ 166 more rows
# ℹ 1 more variable: FlatPricelag1 <dbl>
…
